2016-Sep-27 13:31:12 Наличие необходимых модулей php (check_php_modules): Ok
Все необходимые модули установлены
2016-Sep-27 13:31:12 Обязательные параметры PHP (check_php_settings): Ok
Настройки правильные
2016-Sep-27 13:31:12 Модули веб-сервера (check_security): Ok
Конфликтов не выявлено
2016-Sep-27 13:31:12 Значения переменных сервера (check_server_vars): Ok
Корректные
2016-Sep-27 13:31:12 Сохранение сессии (check_session): Ok
50% done
2016-Sep-27 13:31:13 Параметры настройки UTF (mbstring и константа BX_UTF) (check_mbstring): Ok
Правильные. Сайт работает в UTF кодировке
2016-Sep-27 13:31:13 Служебные скрипты в корне сайта (check_install_scripts): Ok
Отсутствуют
2016-Sep-27 13:31:13 Работа с сокетами (check_socket): Ok
Connection to lebedevay2.picom.su:80	Success

Успешно
